…
Crime Analytics
---------------

Intro paragraph which says what my primary finding is and describes two or three supporting visualisations.

``` r
SeattleData <- as_tibble(read.csv("seattle_incidents_summer_2014.csv"))
SanFranciscoData <- as_tibble(read.csv("sanfrancisco_incidents_summer_2014.csv"))

SeattleData
```

    ## # A tibble: 32,779 x 19
    ##    RMS.CDW.ID General.Offense.~ Offense.Code Offense.Code.Ex~ Offense.Type
    ##         <int>             <dbl> <fct>                   <int> <fct>       
    ##  1     483839       2015218538. 2202                        0 BURGLARY-FO~
    ##  2     481252       2015213067. 2610                        0 FRAUD-IDENT~
    ##  3     481375       2015210301. 2316                        0 THEFT-MAIL  
    ##  4     481690       2015209327. 2599                        0 COUNTERFEIT 
    ##  5     478198       2015207880. 2399                        3 THEFT-OTH   
    ##  6     480485       2015904103. 2308                        0 THEFT-BUILD~
    ##  7     470170       2015185464. 2308                        0 THEFT-BUILD~
    ##  8     465137       2015174988. 2605                        0 FRAUD-CREDI~
    ##  9     461710       2015168191. 2610                        0 FRAUD-IDENT~
    ## 10     456091       2015157266. 2606                        1 FRAUD-CHECK 
    ## # ... with 32,769 more rows, and 14 more variables:
    ## #   Summary.Offense.Code <fct>, Summarized.Offense.Description <fct>,
    ## #   Date.Reported <fct>, Occurred.Date.or.Date.Range.Start <fct>,
    ## #   Occurred.Date.Range.End <fct>, Hundred.Block.Location <fct>,
    ## #   District.Sector <fct>, Zone.Beat <fct>, Census.Tract.2000 <dbl>,
    ## #   Longitude <dbl>, Latitude <dbl>, Location <fct>, Month <int>,
    ## #   Year <int>

``` r
SanFranciscoData
```

    ## # A tibble: 28,993 x 13
    ##    IncidntNum Category     Descript       DayOfWeek Date  Time  PdDistrict
    ##         <int> <fct>        <fct>          <fct>     <fct> <fct> <fct>     
    ##  1  140734311 ARSON        ARSON OF A VE~ Sunday    08/3~ 23:50 BAYVIEW   
    ##  2  140736317 NON-CRIMINAL LOST PROPERTY  Sunday    08/3~ 23:45 MISSION   
    ##  3  146177923 LARCENY/THE~ GRAND THEFT F~ Sunday    08/3~ 23:30 SOUTHERN  
    ##  4  146177531 LARCENY/THE~ GRAND THEFT F~ Sunday    08/3~ 23:30 RICHMOND  
    ##  5  140734220 NON-CRIMINAL FOUND PROPERTY Sunday    08/3~ 23:23 RICHMOND  
    ##  6  140734349 DRUG/NARCOT~ POSSESSION OF~ Sunday    08/3~ 23:13 SOUTHERN  
    ##  7  140734349 DRUG/NARCOT~ POSSESSION OF~ Sunday    08/3~ 23:13 SOUTHERN  
    ##  8  140734349 DRIVING UND~ DRIVING WHILE~ Sunday    08/3~ 23:13 SOUTHERN  
    ##  9  140738147 OTHER OFFEN~ EVADING A POL~ Sunday    08/3~ 23:00 INGLESIDE 
    ## 10  140734258 TRESPASS     TRESPASSING    Sunday    08/3~ 23:00 CENTRAL   
    ## # ... with 28,983 more rows, and 6 more variables: Resolution <fct>,
    ## #   Address <fct>, X <dbl>, Y <dbl>, Location <fct>, PdId <dbl>
…
Month <- SeattleData$Month
Month <- append(Month, month(mdy(SanFranciscoData$Date)))

DayOfWeek <- wday(mdy_hms(SeattleData$Occurred.Date.or.Date.Range.Start), label=TRUE, abbr = FALSE)
DayOfWeek <- append(DayOfWeek, SanFranciscoData$DayOfWeek)

Hour <- hour(mdy_hms(SeattleData$Occurred.Date.or.Date.Range.Start))
Hour <- append(Hour, as.numeric(substr(SanFranciscoData$Time,start=1, stop=2)))

CrimeTibble <- tibble(City = City, Date = Date, Month = Month, DayOfWeek = DayOfWeek, Hour = Hour)

CrimeTibble
```

    ## # A tibble: 61,772 x 5
    ##    City    Date       Month DayOfWeek  Hour
    ##    <chr>   <date>     <dbl>     <int> <dbl>
    ##  1 Seattle 2014-06-28    6.         7   10.
    ##  2 Seattle 2014-06-01    6.         1    0.
    ##  3 Seattle 2014-08-31    8.         1    9.
    ##  4 Seattle 2014-06-20    6.         6   13.
    ##  5 Seattle 2014-06-01    6.         1   11.
    ##  6 Seattle 2014-06-19    6.         5   14.
    ##  7 Seattle 2014-06-01    6.         1    0.
    ##  8 Seattle 2014-08-22    8.         6   11.
    ##  9 Seattle 2014-08-01    8.         6    0.
    ## 10 Seattle 2014-07-20    7.         1   12.
    ## # ... with 61,762 more rows
…
